{
  "$schema": "http://json-schema.org/draft-07/schema",
  "$id": "https://raw.githubusercontent.com/anc-data-acquisition/master/nextflow_schema.json",
  "title": "anc-data-acquisition pipeline parameters",
  "description": "Austrian NeuroCloud pipeline for data conversion and injection",
  "type": "object",
  "definitions": {
    "pipeline_parameters": {
      "title": "Pipeline parameters",
      "type": "object",
      "description": "Parmeters to configure the pipeline",
      "default": "",
      "properties": {
        "participantFile": {
          "type": "string",
          "description": "Path to input file",
          "format": "file-path"
        },
        "deface": {
          "type": "boolean",
          "description": "Determine whether the defacing should be performed on the structural images"
        },
        "volumesToDiscard": {
          "type": "integer",
          "default": 0,
          "description": "The number of head volumes to be discarded from functional images"
        },
        "bidscoinMap": {
          "type": "string",
          "default": "${projectDir}/assets/bidscoin_map.yaml",
          "description": "Absolute path to BIDScoin map yaml file"
        },
        "outputMode": {
          "type": "string",
          "default": "copy",
          "description": "Mode of handling publishing the pipeline outputs, when `ancInject = false`",
          "enum": ["link", "copy"]
        },
        "outputDir": {
          "type": "string",
          "default": "${launchDir}/output",
          "description": "Absolute path to the directory where outputs of the pipeline (files in `sub-*/ses-*`) should be published, when `ancInject = false`"
        }
      },
      "required": ["participantFile"]
    },
    "anc_data_injection": {
      "title": "ANC data injection",
      "type": "object",
      "description": "Parameters to configure data injection to the ANC",
      "default": "",
      "properties": {
        "ancInject": {
          "type": "boolean",
          "default": true,
          "description": "Enable data injection to the ANC"
        },
        "ancNamespace": {
          "type": "string",
          "default": "bids-datasets",
          "description": "Namespace of the research unit group in the ANC repository, in which the target BIDS dataset project is stored"
        },
        "pythonGitlabConfig": {
          "type": "string",
          "default": "~/.python-gitlab.cfg",
          "description": "Path to local python-gitlab config file, which is required for the ANC GitLab authentication"
        }
      }
    }
  },
  "allOf": [
    {
      "$ref": "#/definitions/pipeline_parameters"
    },
    {
      "$ref": "#/definitions/anc_data_injection"
    }
  ]
}
